<?xml version="1.0" encoding="UTF-8" standalone="no"?>
<!-- Created with Inkscape (http://www.inkscape.org/) -->

<svg
   xmlns:dc="http://purl.org/dc/elements/1.1/"
   xmlns:cc="http://creativecommons.org/ns#"
   xmlns:rdf="http://www.w3.org/1999/02/22-rdf-syntax-ns#"
   xmlns:svg="http://www.w3.org/2000/svg"
   xmlns="http://www.w3.org/2000/svg"
   xmlns:sodipodi="http://sodipodi.sourceforge.net/DTD/sodipodi-0.dtd"
   xmlns:inkscape="http://www.inkscape.org/namespaces/inkscape"
   width="16mm"
   height="16mm"
   viewBox="0 0 16 16"
   version="1.1"
   id="svg8"
   inkscape:version="0.92.3 (2405546, 2018-03-11)"
   sodipodi:docname="iAbsence.svg"
   inkscape:export-filename="D:\Projects\oaclient\ico\iAbsence.png"
   inkscape:export-xdpi="25.4"
   inkscape:export-ydpi="25.4">
  <defs
     id="defs2" />
  <sodipodi:namedview
     id="base"
     pagecolor="#ffffff"
     bordercolor="#666666"
     borderopacity="1.0"
     inkscape:pageopacity="0.0"
     inkscape:pageshadow="2"
     inkscape:zoom="7.9195959"
     inkscape:cx="18.900464"
     inkscape:cy="42.29775"
     inkscape:document-units="mm"
     inkscape:current-layer="layer1"
     showgrid="false"
     inkscape:window-width="1920"
     inkscape:window-height="1017"
     inkscape:window-x="-8"
     inkscape:window-y="-8"
     inkscape:window-maximized="1" />
  <metadata
     id="metadata5">
    <rdf:RDF>
      <cc:Work
         rdf:about="">
        <dc:format>image/svg+xml</dc:format>
        <dc:type
           rdf:resource="http://purl.org/dc/dcmitype/StillImage" />
        <dc:title></dc:title>
      </cc:Work>
    </rdf:RDF>
  </metadata>
  <g
     inkscape:label="Layer 1"
     inkscape:groupmode="layer"
     id="layer1"
     transform="translate(0,-281)">
    <path
       style="fill:#fdfdfd;fill-opacity:1;stroke:#000000;stroke-width:3.23744369;stroke-miterlimit:4;stroke-dasharray:none;stroke-opacity:1"
       d="M 30.683594 1.9472656 A 28.473677 28.284271 0 0 0 2.2089844 30.230469 A 28.473677 28.284271 0 0 0 30.683594 58.515625 A 28.473677 28.284271 0 0 0 50.726562 50.302734 A 18.877226 19.256033 0 0 1 33.208984 31.115234 A 18.877226 19.256033 0 0 1 52.085938 11.859375 A 18.877226 19.256033 0 0 1 52.298828 11.871094 A 28.473677 28.284271 0 0 0 30.683594 1.9472656 z "
       transform="matrix(0.26458333,0,0,0.26458333,0,281)"
       id="path816" />
  </g>
</svg>
